{
	"info": {
		"_postman_id": "46a3db0b-3d13-43fb-a525-d956c3b44038",
		"name": "Jsonplaceholder",
		"schema": "https://schema.getpostman.com/json/collection/v2.1.0/collection.json"
	},
	"item": [
		{
			"name": "New Request",
			"event": [
				{
					"listen": "prerequest",
					"script": {
						"exec": [
							"pm.test(\"Check if post\", function(){\r",
							"    pm.expect(pm.request.body.findInParents(\"post\"));\r",
							"});"
						],
						"type": "text/javascript"
					}
				},
				{
					"listen": "test",
					"script": {
						"exec": [
							"pm.test(\"Successful POST request\", function () {\r",
							"    pm.expect(pm.response.code).to.be.oneOf([200,201,202]);\r",
							"});\r",
							"\r",
							"pm.test(\"Response should be okay to process\", function () {\r",
							"    pm.response.to.not.be.error;\r",
							"    pm.response.to.not.have.jsonBody(\"\");\r",
							"    pm.response.to.not.have.jsonBody(\"error\");\r",
							"    pm.response.to.have.property('status', 'Created');\r",
							"});\r",
							"\r",
							"pm.test(\"Response must be valid and have a body\", function () {\r",
							"     pm.response.to.be.withBody;\r",
							"     pm.response.to.be.json;\r",
							"     pm.response.to.have.property('status', 'Created');\r",
							"});"
						],
						"type": "text/javascript"
					}
				}
			],
			"request": {
				"method": "POST",
				"header": [],
				"body": {
					"mode": "raw",
					"raw": "{\r\n    \"id\": 1,\r\n    \"body\": \"some comment\",\r\n    \"postId\": 1\r\n}",
					"options": {
						"raw": {
							"language": "json"
						}
					}
				},
				"url": {
					"raw": "https://jsonplaceholder.typicode.com/posts",
					"protocol": "https",
					"host": [
						"jsonplaceholder",
						"typicode",
						"com"
					],
					"path": [
						"posts"
					],
					"query": [
						{
							"key": "1",
							"value": "asdfg",
							"description": "qwerty",
							"disabled": true
						}
					]
				}
			},
			"response": []
		},
		{
			"name": "New Request",
			"event": [
				{
					"listen": "prerequest",
					"script": {
						"exec": [
							"pm.test(\"Check if patch\", function(){\r",
							"    pm.expect(pm.request.body.findInParents(\"patch\"));\r",
							"});"
						],
						"type": "text/javascript"
					}
				},
				{
					"listen": "test",
					"script": {
						"exec": [
							"pm.test(\"Successful PATCH request\", function () {\r",
							"    pm.expect(pm.response.code).to.be.oneOf([200,201,202]);\r",
							"});\r",
							"\r",
							"pm.test(\"Response should be okay to process\", function () {\r",
							"    pm.response.to.not.be.error;\r",
							"    pm.response.to.not.have.jsonBody(\"\");\r",
							"    pm.response.to.not.have.jsonBody(\"error\");\r",
							"});\r",
							"\r",
							"pm.test(\"Response must be valid and have a body\", function () {\r",
							"     pm.response.to.be.ok;\r",
							"     pm.response.to.be.withBody;\r",
							"     pm.response.to.be.json;\r",
							"});"
						],
						"type": "text/javascript"
					}
				}
			],
			"request": {
				"method": "PATCH",
				"header": [],
				"body": {
					"mode": "raw",
					"raw": "{\r\n    \"id\": 1,\r\n    \"body\": \"little fix\",\r\n    \"postId\": 1\r\n}",
					"options": {
						"raw": {
							"language": "json"
						}
					}
				},
				"url": {
					"raw": "https://jsonplaceholder.typicode.com/posts/1",
					"protocol": "https",
					"host": [
						"jsonplaceholder",
						"typicode",
						"com"
					],
					"path": [
						"posts",
						"1"
					]
				}
			},
			"response": []
		},
		{
			"name": "New Request",
			"event": [
				{
					"listen": "prerequest",
					"script": {
						"exec": [
							"pm.test(\"Check if put\", function(){\r",
							"    pm.expect(pm.request.body.findInParents(\"put\"));\r",
							"});"
						],
						"type": "text/javascript"
					}
				},
				{
					"listen": "test",
					"script": {
						"exec": [
							"pm.test(\"Successful PUT request\", function () {\r",
							"    pm.expect(pm.response.code).to.be.oneOf([200,201,202]);\r",
							"});\r",
							"\r",
							"pm.test(\"Response should be okay to process\", function () {\r",
							"    pm.response.to.not.be.error;\r",
							"    pm.response.to.not.have.jsonBody(\"\");\r",
							"    pm.response.to.not.have.jsonBody(\"error\");\r",
							"});\r",
							"\r",
							"pm.test(\"Response must be valid and have a body\", function () {\r",
							"     pm.response.to.be.ok;\r",
							"     pm.response.to.be.withBody;\r",
							"     pm.response.to.be.json;\r",
							"});"
						],
						"type": "text/javascript"
					}
				}
			],
			"request": {
				"method": "PUT",
				"header": [],
				"body": {
					"mode": "raw",
					"raw": "{\r\n    \"id\": 1,\r\n    \"body\": \"fully new\",\r\n    \"postId\": 1\r\n}",
					"options": {
						"raw": {
							"language": "json"
						}
					}
				},
				"url": {
					"raw": "https://jsonplaceholder.typicode.com/posts/1",
					"protocol": "https",
					"host": [
						"jsonplaceholder",
						"typicode",
						"com"
					],
					"path": [
						"posts",
						"1"
					]
				}
			},
			"response": []
		}
	]
}